{
  "users": [
    {
      "id": 1,
      "custId": 1,
      "name": "Christopher",
      "email": "christopher@gmail.com",
      "password": "christopher",
      "role": "customer"
    },
    {
      "id": 2,
      "custId": 2,
      "name": "John Doe",
      "email": "johndoe@gmail.com",
      "password": "johndoe",
      "role": "customer"
    },
    {
      "id": 111,
      "name": "James Richardson",
      "email": "james.richardson@gmail.com",
      "password": "jamesrichardson",
      "role": "manager"
    },
    {
      "name": "Alexander",
      "email": "alexander111@gmail.com",
      "password": "alexander",
      "role": "customer",
      "id": 112,
      "custId": 10
    },
    {
      "name": "sdfasdf",
      "email": "sdfasdf@gmail.com",
      "password": "asdfasd",
      "role": "customer",
      "id": 113
    },
    {
      "name": "testuser",
      "email": "testuser@gmail.com",
      "password": "testuser",
      "role": "customer",
      "id": 114
    },
    {
      "name": "testuser111",
      "email": "testuser111@gmail.com",
      "password": "testuser111",
      "role": "customer",
      "id": 115
    },
    {
      "name": "testuser222",
      "email": "testuser222@gmail.com",
      "password": "testuser222",
      "role": "customer",
      "id": 116
    },
    {
      "name": "testuser333",
      "custId": 15,
      "email": "testuser333@gmail.com",
      "password": "testuser333",
      "role": "customer",
      "id": 117
    }
  ],
  "loans": [
    {
      "id": 1,
      "bankName": "LightStream",
      "bankImageUrl": "../../../../assets/images/bank.png",
      "minLoanAmount": 5000,
      "maxLoanAmount": 100000,
      "minInterestRate": 4.99,
      "maxInterestRate": 15.69,
      "minCreditScore": 660,
      "termLength": 48,
      "processingFee": 100,
      "rating": 4.9,
      "favouriteCount": 9
    },
    {
      "id": 2,
      "bankName": "Sofi",
      "bankImageUrl": "../../../../assets/images/bank.png",
      "minLoanAmount": 4000,
      "maxLoanAmount": 50000,
      "minInterestRate": 5.99,
      "maxInterestRate": 18.69,
      "minCreditScore": 680,
      "termLength": 60,
      "processingFee": 150,
      "rating": 4.5,
      "favouriteCount": 15
    },
    {
      "id": 3,
      "bankName": "Marcus",
      "bankImageUrl": "../../../../assets/images/bank.png",
      "minLoanAmount": 3500,
      "maxLoanAmount": 40000,
      "minInterestRate": 6.99,
      "maxInterestRate": 25.69,
      "minCreditScore": 660,
      "termLength": 60,
      "processingFee": 120,
      "rating": 4.7,
      "favouriteCount": 14
    },
    {
      "id": 4,
      "bankName": "UpGrade",
      "bankImageUrl": "../../../../assets/images/bank.png",
      "minLoanAmount": 2000,
      "maxLoanAmount": 35000,
      "minInterestRate": 9.55,
      "maxInterestRate": 15.69,
      "minCreditScore": 580,
      "termLength": 48,
      "processingFee": 150,
      "rating": 4,
      "favouriteCount": 7
    }
  ],
  "customers": [
    {
      "id": 1,
      "name": "Christopher",
      "email": "christopher@gmail.com",
      "contactNo": 6451234,
      "gender": "M",
      "age": 37,
      "profilePicUrl": "../../../../assets/images/team/tm1.jpg",
      "designation": "Training Consultant",
      "company": "Virtusa",
      "monthlySalary": 5000,
      "creditScore": 750,
      "appliedLoans": [
        {
          "id": 1,
          "bankName": "LightStream",
          "bankImageUrl": "../../../../assets/images/bank.png",
          "appliedLoanAmount": 20000,
          "rateOfInterest": 7.8,
          "processingFee": 100,
          "termLength": 48,
          "dateOfApplication": "03-12-2020",
          "verificationStatus": "Verification Failed",
          "status": "Rejected"
        }
      ],
      "favLoans": [
        {
          "id": 1,
          "bankName": "LightStream",
          "bankImageUrl": "../../../../assets/images/bank.png",
          "minLoanAmount": 5000,
          "maxLoanAmount": 100000,
          "minInterestRate": 4.99,
          "maxInterestRate": 15.69,
          "minCreditScore": 660,
          "termLength": 48,
          "processingFee": 100,
          "rating": 4.9,
          "favouriteCount": 10
        },
        {
          "id": 2,
          "bankName": "Sofi",
          "bankImageUrl": "../../../../assets/images/bank.png",
          "minLoanAmount": 4000,
          "maxLoanAmount": 50000,
          "minInterestRate": 5.99,
          "maxInterestRate": 18.69,
          "minCreditScore": 680,
          "termLength": 60,
          "processingFee": 150,
          "rating": 4.5,
          "favouriteCount": 15
        },
        {
          "id": 4,
          "bankName": "UpGrade",
          "bankImageUrl": "../../../../assets/images/bank.png",
          "minLoanAmount": 2000,
          "maxLoanAmount": 35000,
          "minInterestRate": 9.55,
          "maxInterestRate": 15.69,
          "minCreditScore": 580,
          "termLength": 48,
          "processingFee": 150,
          "rating": 4,
          "favouriteCount": 8
        }
      ]
    },
    {
      "id": 2,
      "name": "John Doe",
      "email": "johndoe@gmail.com",
      "contactNo": 6783456,
      "gender": "M",
      "age": 42,
      "profilePicUrl": "../../../../assets/images/team/tm3.jpg",
      "designation": "Project Architect",
      "company": "Google",
      "monthlySalary": 8000,
      "creditScore": 750,
      "appliedLoans": [
        {
          "id": 2,
          "bankName": "Sofi",
          "bankImageUrl": "../../../../assets/images/bank.png",
          "appliedLoanAmount": 20000,
          "rateOfInterest": 7.8,
          "processingFee": 150,
          "termLength": 60,
          "dateOfApplication": "03-15-2020",
          "verificationStatus": "Verification Successful",
          "status": "Approved"
        }
      ],
      "favLoans": []
    },
    {
      "id": 3,
      "name": "Mary Com",
      "email": "marycom@gmail.com",
      "contactNo": 6779898,
      "gender": "F",
      "age": 32,
      "profilePicUrl": "../../../../assets/images/team/pic06.jpg",
      "designation": "Product Engineer",
      "company": "Facebook",
      "monthlySalary": 7000,
      "creditScore": 750,
      "appliedLoans": [
        {
          "id": 3,
          "bankName": "Marcus",
          "bankImageUrl": "../../../../assets/images/bank.png",
          "appliedLoanAmount": 30000,
          "rateOfInterest": 7.5,
          "processingFee": 120,
          "termLength": 60,
          "dateOfApplication": "03-19-2020",
          "verificationStatus": "Verification Successful",
          "status": "Approved"
        }
      ],
      "favLoans": []
    },
    {
      "id": 4,
      "name": "Alexander",
      "email": "alexander@gmail.com",
      "contactNo": 6772365,
      "gender": "M",
      "age": 26,
      "profilePicUrl": "../../../../assets/images/team/tm4.jpg",
      "designation": "Junior Software Developer",
      "company": "NLB Services Pvt Ltd",
      "monthlySalary": 4500,
      "creditScore": 750,
      "appliedLoans": [
        {
          "id": 4,
          "bankName": "UpGrade",
          "bankImageUrl": "../../../../assets/images/bank.png",
          "appliedLoanAmount": 15000,
          "rateOfInterest": 8.2,
          "processingFee": 150,
          "termLength": 48,
          "dateOfApplication": "03-20-2020",
          "verificationStatus": "Verification Failed",
          "status": "Rejected"
        }
      ],
      "favLoans": []
    },
    {
      "name": "jfgjgfj",
      "email": "ghjfgjhgh@gmail.com",
      "password": "oiert",
      "contactNo": "345363",
      "gender": "M",
      "age": 34,
      "profilePicUrl": ";lkasjdfasdf",
      "company": "alskdjf;asdf",
      "designation": "aslkdfasfd",
      "monthlySalary": 43534,
      "creditScore": 345,
      "appliedLoans": [],
      "favLoans": [],
      "id": 9
    },
    {
      "name": "asfsdaf",
      "email": "alexander111@gmail.com",
      "password": "alexander",
      "contactNo": "5464565",
      "gender": "M",
      "age": 35,
      "profilePicUrl": "asdfsadf",
      "company": "asdfasdf",
      "designation": "sadfasdf",
      "monthlySalary": 34534,
      "creditScore": 445,
      "appliedLoans": [],
      "favLoans": [
        {
          "id": 1,
          "bankName": "LightStream",
          "bankImageUrl": "../../../../assets/images/bank.png",
          "minLoanAmount": 5000,
          "maxLoanAmount": 100000,
          "minInterestRate": 4.99,
          "maxInterestRate": 15.69,
          "minCreditScore": 660,
          "termLength": 48,
          "processingFee": 100,
          "rating": 4.9,
          "favouriteCount": 11
        },
        {
          "id": 3,
          "bankName": "Marcus",
          "bankImageUrl": "../../../../assets/images/bank.png",
          "minLoanAmount": 3500,
          "maxLoanAmount": 40000,
          "minInterestRate": 6.99,
          "maxInterestRate": 25.69,
          "minCreditScore": 660,
          "termLength": 60,
          "processingFee": 120,
          "rating": 4.7,
          "favouriteCount": 23
        }
      ],
      "id": 10
    },
    {
      "name": "gfjfgh",
      "email": "sdfasdf@gmail.com",
      "password": "asdfasd",
      "contactNo": "45645645",
      "gender": "M",
      "age": 35,
      "profilePicUrl": "dfgdsffg",
      "company": "dfgasd",
      "designation": "dfgsdfggf",
      "monthlySalary": 34532,
      "creditScore": 245,
      "appliedLoans": [],
      "favLoans": [],
      "id": 11
    },
    {
      "name": "testuser",
      "email": "testuser@gmail.com",
      "password": "testuser",
      "contactNo": "5634534",
      "gender": "M",
      "age": 35,
      "profilePicUrl": "sdfasdf",
      "company": "Infosys",
      "designation": "sasadf",
      "monthlySalary": 3453,
      "creditScore": 345,
      "appliedLoans": [],
      "favLoans": [],
      "id": 12
    },
    {
      "name": "testuser111",
      "email": "testuser111@gmail.com",
      "password": "testuser111",
      "contactNo": "345354",
      "gender": "M",
      "age": 35,
      "profilePicUrl": "sadfasdf",
      "company": "asdfasdf",
      "designation": "asdfasdf",
      "monthlySalary": 3435,
      "creditScore": 345,
      "appliedLoans": [],
      "favLoans": [],
      "id": 13
    },
    {
      "name": "testuser222",
      "email": "testuser222@gmail.com",
      "password": "testuser222",
      "contactNo": "3453454",
      "gender": "M",
      "age": 35,
      "profilePicUrl": "sadfasdfasf",
      "company": "Infosys",
      "designation": "asdfgasdgs",
      "monthlySalary": 35434,
      "creditScore": 345,
      "appliedLoans": [],
      "favLoans": [],
      "id": 14
    },
    {
      "name": "testuser333",
      "email": "testuser333@gmail.com",
      "password": "testuser333",
      "contactNo": "3453454",
      "gender": "M",
      "age": 35,
      "profilePicUrl": ";lkdjf;alsasdfsadf",
      "company": "lkajs;lkasdf",
      "designation": "asdkfjasdf",
      "monthlySalary": 3453,
      "creditScore": 800,
      "appliedLoans": [
        {
          "verificationStatus": "Verification Successful",
          "status": "Approved",
          "id": 1,
          "bankName": "LightStream",
          "bankImageUrl": "../../../../assets/images/bank.png",
          "processingFee": 100,
          "appliedLoanAmount": 45645,
          "rateOfInterest": 8,
          "termLength": 48,
          "creditScore": 660,
          "dateOfApplication": "2020-04-12"
        },
        {
          "verificationStatus": "Verification Failed",
          "status": "Rejected",
          "id": 2,
          "bankName": "Sofi",
          "bankImageUrl": "../../../../assets/images/bank.png",
          "processingFee": 150,
          "appliedLoanAmount": 34567,
          "rateOfInterest": 7,
          "termLength": 60,
          "creditScore": 680,
          "dateOfApplication": "\"2020-04-12\""
        }
      ],
      "favLoans": [
        {
          "id": 3,
          "bankName": "Sofi",
          "bankImageUrl": "../../../../assets/images/bank.png",
          "minLoanAmount": 3500,
          "maxLoanAmount": 40000,
          "minInterestRate": 6.99,
          "maxInterestRate": 25.69,
          "minCreditScore": 660,
          "termLength": 60,
          "processingFee": 120,
          "rating": 4.7,
          "favouriteCount": 14
        }
      ],
      "id": 15
    }
  ]
}